<svg width="8" height="12" viewBox="0 0 11 16" fill="none" xmlns="http://www.w3.org/2000/svg" id="caret">
<path d="M0.334732 2.52119L2.7734 0.0825195L10.5648 7.87391L2.77322 15.6655L0.334858 13.225L5.68741 7.87386L0.334732 2.52119Z" fill="#1B1B1B"/>
</svg>
